{
    "status": "success",
    "statusCode": "200",
    "message": "Streams fetched - successful",
    "responseData": {
        "content": [
            {
                "streamArchive": null,
                "accessVisibility": "UNLISTED",
                "playlistStreamIds": null,
                "id": "f450674ae15",
                "name": "stream 11",
                "eventStart": 1737615600000,
                "logo": null,
                "category": "LIVE",
                "cancellation_reason": null,
                "created_date": 1737540133241,
                "session_id": "2_MX40NzQ3NjA2MX5-MTczNzU0MDEzMjcyNn5mK1BHdjh4R0Nna0pIMTd3MmJMRGtPUmR-fn4",
                "archive_id": null,
                "access_key": "MTczNzU0MDEzMzI0MV9mNDUwNjc0YWUxNQ==",
                "description": "",
                "photos": null,
                "streamStatus": "EXPIRED"
            },
            {
                "streamArchive": {
                    "archiveId": "ad9f3bd9-8936-4edc-89c8-e35268e82970",
                    "archiveName": "tenth 01-22-2025 15:08 PM",
                    "status": "uploaded",
                    "type": "ARCHIVE",
                    "vodURL": "s3://zeacon-qa-media-files/hls/ad9f3bd9-8936-4edc-89c8-e35268e82970/index.m3u8",
                    "createdAt": 1737540526000,
                    "duration": 142,
                    "archiveMetadata": {
                        "metadataList": []
                    },
                    "jobStatus": "COMPLETE",
                    "jobPercentage": 100,
                    "cta": null
                },
                "accessVisibility": "UNLISTED",
                "playlistStreamIds": null,
                "id": "434d821c0f4",
                "name": "tenth",
                "eventStart": 1737615600000,
                "logo": null,
                "category": "VOD",
                "cancellation_reason": null,
                "created_date": 1737540125325,
                "session_id": "1_MX40NzQ3NjA2MX5-MTczNzU0MDEyNDgxM35jY2JseUo3M2dKcnpINW92Uk9nY1hSaDN-fn4",
                "archive_id": "ad9f3bd9-8936-4edc-89c8-e35268e82970",
                "access_key": "MTczNzU0MDEyNTMyNV80MzRkODIxYzBmNA==",
                "description": "tenth tenth tenth tenth tenth tenth tenth tenth tenth tenth tenth tenth tenth tenth tenth tenth tenth tenth tenth tenth tenth tenth tenth tenth tenth ",
                "photos": null,
                "streamStatus": "EXPIRED"
            },
            {
                "streamArchive": null,
                "accessVisibility": "UNLISTED",
                "playlistStreamIds": null,
                "id": "a36bc375f85",
                "name": "nine",
                "eventStart": 1737615600000,
                "logo": null,
                "category": "LIVE",
                "cancellation_reason": null,
                "created_date": 1737540085745,
                "session_id": "2_MX40NzQ3NjA2MX5-MTczNzU0MDA4NTIxOX5NZVBHMlB0azh5dnhSb2cyRjZPbnBkNXN-fn4",
                "archive_id": null,
                "access_key": "MTczNzU0MDA4NTc0Nl9hMzZiYzM3NWY4NQ==",
                "description": "",
                "photos": null,
                "streamStatus": "ACTIVE"
            },
            {
                "streamArchive": null,
                "accessVisibility": "UNLISTED",
                "playlistStreamIds": null,
                "id": "8d8ba571b36",
                "name": "eigth",
                "eventStart": 1737615600000,
                "logo": null,
                "category": "LIVE",
                "cancellation_reason": null,
                "created_date": 1737540077937,
                "session_id": "1_MX40NzQ3NjA2MX5-MTczNzU0MDA3NzQwOH4xUjhZUDhLMzhOTDVMeDlMMlZuRDg5L3V-fn4",
                "archive_id": null,
                "access_key": "MTczNzU0MDA3NzkzN184ZDhiYTU3MWIzNg==",
                "description": "",
                "photos": null,
                "streamStatus": "ACTIVE"
            },
            {
                "streamArchive": null,
                "accessVisibility": "UNLISTED",
                "playlistStreamIds": null,
                "id": "037746f3d04",
                "name": "seven",
                "eventStart": 1737615600000,
                "logo": null,
                "category": "LIVE",
                "cancellation_reason": null,
                "created_date": 1737540069811,
                "session_id": "2_MX40NzQ3NjA2MX5-MTczNzU0MDA2OTM1N35DOWhSaGZ5Y2VNTFdnelpkVGo0UjBiQyt-fn4",
                "archive_id": null,
                "access_key": "MTczNzU0MDA2OTgxMV8wMzc3NDZmM2QwNA==",
                "description": "",
                "photos": null,
                "streamStatus": "ACTIVE"
            },
            {
                "streamArchive": null,
                "accessVisibility": "UNLISTED",
                "playlistStreamIds": null,
                "id": "8ddaf54e918",
                "name": "sixth",
                "eventStart": 1737615600000,
                "logo": null,
                "category": "LIVE",
                "cancellation_reason": null,
                "created_date": 1737540061347,
                "session_id": "1_MX40NzQ3NjA2MX5-MTczNzU0MDA2MDgxN35ONVh5Tk9LTFUrNlRIZHUyY1Zzb3ZwZmJ-fn4",
                "archive_id": null,
                "access_key": "MTczNzU0MDA2MTM0N184ZGRhZjU0ZTkxOA==",
                "description": "",
                "photos": null,
                "streamStatus": "ACTIVE"
            },
            {
                "streamArchive": null,
                "accessVisibility": "UNLISTED",
                "playlistStreamIds": null,
                "id": "b0e1ddcc486",
                "name": "fifth",
                "eventStart": 1737615600000,
                "logo": null,
                "category": "LIVE",
                "cancellation_reason": null,
                "created_date": 1737540050704,
                "session_id": "2_MX40NzQ3NjA2MX5-MTczNzU0MDA1MDI1MX54YWZtSFZiYjJaV2hNRFcrNXVCZDhsMk5-fn4",
                "archive_id": null,
                "access_key": "MTczNzU0MDA1MDcwNF9iMGUxZGRjYzQ4Ng==",
                "description": "5th stream 5th stream 5th stream 5th stream 5th stream 5th stream 5th stream 5th stream 5th stream 5th stream 5th stream 5th stream 5th stream 5th stream 5th stream 5th stream 5th stream 5th stream 5th stream 5th stream 5th stream 5th stream ",
                "photos": null,
                "streamStatus": "ACTIVE"
            },
            {
                "streamArchive": null,
                "accessVisibility": "UNLISTED",
                "playlistStreamIds": null,
                "id": "8b3e3990669",
                "name": "fourth",
                "eventStart": 1737615600000,
                "logo": null,
                "category": "LIVE",
                "cancellation_reason": null,
                "created_date": 1737540036895,
                "session_id": "1_MX40NzQ3NjA2MX5-MTczNzU0MDAzNjMzOX5ZampBbU96T1ZTTXZJcldqbFJ6bkhUSG9-fn4",
                "archive_id": null,
                "access_key": "MTczNzU0MDAzNjg5NV84YjNlMzk5MDY2OQ==",
                "description": "fourth fourth fourth fourth fourth fourth fourth fourth fourth fourth fourth fourth fourth fourth fourth fourth fourth fourth fourth fourth fourth fourth fourth fourth fourth fourth fourth fourth fourth fourth fourth fourth fourth fourth fourth fourth ",
                "photos": null,
                "streamStatus": "ACTIVE"
            },
            {
                "streamArchive": null,
                "accessVisibility": "UNLISTED",
                "playlistStreamIds": null,
                "id": "a9b183f6f6f",
                "name": "Go live on this stream",
                "eventStart": 1737529200000,
                "logo": "1737461337_best.jpg",
                "category": "LIVE",
                "cancellation_reason": null,
                "created_date": 1737461341050,
                "session_id": "2_MX40NzQ3NjA2MX5-MTczNzQ2MTM0MDYwMH5rckNUM0daR2k3SzBzWGRsMU9hcU10YmZ-fn4",
                "archive_id": null,
                "access_key": "MTczNzQ2MTM0MTA1MF9hOWIxODNmNmY2Zg==",
                "description": "Streaming live for a couple of minutes",
                "photos": [
                    "1737461337_best.jpg"
                ],
                "streamStatus": "EXPIRED"
            },
            {
                "streamArchive": null,
                "accessVisibility": "UNLISTED",
                "playlistStreamIds": null,
                "id": "49b84a52d9f",
                "name": "Another stream with no desc or thumbnail",
                "eventStart": 1737529200000,
                "logo": null,
                "category": "LIVE",
                "cancellation_reason": null,
                "created_date": 1737461308794,
                "session_id": "2_MX40NzQ3NjA2MX5-MTczNzQ2MTMwODM1Nn5YOUdlZ2lJaktaT09aL2I2SG9nZ1k3Rm9-fn4",
                "archive_id": null,
                "access_key": "MTczNzQ2MTMwODc5NF80OWI4NGE1MmQ5Zg==",
                "description": "",
                "photos": null,
                "streamStatus": "ACTIVE"
            }
        ],
        "pageable": {
            "sort": {
                "empty": true,
                "sorted": false,
                "unsorted": true
            },
            "offset": 0,
            "pageNumber": 0,
            "pageSize": 10,
            "paged": true,
            "unpaged": false
        },
        "last": false,
        "totalElements": 11,
        "totalPages": 2,
        "size": 10,
        "number": 0,
        "sort": {
            "empty": true,
            "sorted": false,
            "unsorted": true
        },
        "first": true,
        "numberOfElements": 10,
        "empty": false
    }
}