{
    "status": "success",
    "statusCode": "200",
    "message": "Streams fetched - successful",
    "responseData": {
        "content": [
            {
                "streamArchive": {
                    "archiveId": "f85767bc29114d1a8239a757ef9bb0fd",
                    "archiveName": "mixkit-purple-and-white-ink-1203-hd-ready_1737404517435.mp4",
                    "status": "uploaded",
                    "type": "VIDEO",
                    "vodURL": "s3://zeacon-qa-media-files/hls/f85767bc29114d1a8239a757ef9bb0fd/index.m3u8",
                    "createdAt": null,
                    "duration": 20020,
                    "archiveMetadata": {
                        "metadataList": []
                    },
                    "jobStatus": "COMPLETE",
                    "jobPercentage": 100,
                    "cta": null
                },
                "accessVisibility": "UNLISTED",
                "id": "9f8b7350b29",
                "name": "purple and white vod - portrait",
                "eventStart": 1737404551495,
                "eventTotal": null,
                "disbursementTotal": null,
                "disbursementStatus": null,
                "ticketCount": null,
                "unSettledEventTotal": 0.000,
                "settledTransactionCount": null,
                "addressLine": null,
                "logo": null,
                "category": "VOD",
                "address_secondary_line": null,
                "address_description": null,
                "website_url": null,
                "cancellation_reason": null,
                "created_date": 1737404551495,
                "session_id": null,
                "archive_id": "f85767bc29114d1a8239a757ef9bb0fd",
                "access_key": "MTczNzQwNDU1MTQ5NV85ZjhiNzM1MGIyOQ==",
                "description": "",
                "photos": [],
                "streamStatus": "ACTIVE"
            },
            {
                "streamArchive": null,
                "accessVisibility": "UNLISTED",
                "id": "10a8999686e",
                "name": "Only stream",
                "eventStart": 1737443700000,
                "eventTotal": null,
                "disbursementTotal": null,
                "disbursementStatus": null,
                "ticketCount": null,
                "unSettledEventTotal": 0.000,
                "settledTransactionCount": null,
                "addressLine": null,
                "logo": "1737400284_book__review.jpg",
                "category": "LIVE",
                "address_secondary_line": null,
                "address_description": null,
                "website_url": null,
                "cancellation_reason": null,
                "created_date": 1737400292332,
                "session_id": "2_MX40NzQ3NjA2MX5-MTczNzQwMDI5MDg0Mn5VanlFbUcwdm9MT0ZHMmlSTm5JRXNDUG9-fn4",
                "archive_id": null,
                "access_key": "MTczNzQwMDI5MjMzMl8xMGE4OTk5Njg2ZQ==",
                "description": "details here",
                "photos": [
                    "1737400284_book__review.jpg"
                ],
                "streamStatus": "ACTIVE"
            },
            {
                "streamArchive": {
                    "archiveId": "4c7c62b057a24360ad5594ab96848fa4",
                    "archiveName": "100_Laws_of_Life_so_You_Don_t_Screw_Your_Life_Up_Like_I_Did_1736927280613.mp4",
                    "status": "uploaded",
                    "type": "VIDEO",
                    "vodURL": "s3://zeacon-qa-media-files/hls/4c7c62b057a24360ad5594ab96848fa4/index.m3u8",
                    "createdAt": null,
                    "duration": 898120,
                    "archiveMetadata": {
                        "metadataList": []
                    },
                    "jobStatus": "COMPLETE",
                    "jobPercentage": 100,
                    "cta": null
                },
                "accessVisibility": "UNLISTED",
                "id": "2af0e4eb756",
                "name": "100 laws of life",
                "eventStart": 1736927317927,
                "eventTotal": null,
                "disbursementTotal": null,
                "disbursementStatus": null,
                "ticketCount": null,
                "unSettledEventTotal": 0.000,
                "settledTransactionCount": null,
                "addressLine": null,
                "logo": null,
                "category": "VOD",
                "address_secondary_line": null,
                "address_description": null,
                "website_url": null,
                "cancellation_reason": null,
                "created_date": 1736927317927,
                "session_id": null,
                "archive_id": "4c7c62b057a24360ad5594ab96848fa4",
                "access_key": "MTczNjkyNzMxNzkyN18yYWYwZTRlYjc1Ng==",
                "description": "",
                "photos": [],
                "streamStatus": "ACTIVE"
            },
            {
                "streamArchive": {
                    "archiveId": "f06d7c6d0a7f44ca97937880d3db1687",
                    "archiveName": "If_Not_Me_Then_Who__!_Emma_Watson_!_A_Motivational_video_1736524956359.mp4",
                    "status": "uploaded",
                    "type": "VIDEO",
                    "vodURL": "s3://zeacon-qa-media-files/hls/f06d7c6d0a7f44ca97937880d3db1687/index.m3u8",
                    "createdAt": null,
                    "duration": 105038,
                    "archiveMetadata": {
                        "metadataList": [
                            {
                                "playbackTime": null,
                                "widgetType": "hypergraphics",
                                "widgetMetadata": {
                                    "businessId": "8e6b8b84-de2b-4cae-a7d7-d7e67f73847e",
                                    "uuid": "430dd412-0883-4b18-900d-58a1e9e54231",
                                    "name": "youtube Hg",
                                    "url": "https://www.youtube.com",
                                    "defaultPath": "gsmarena_000_1732511502102.jpg",
                                    "hoverPath": "gsmarena_000_1732511507943.jpg",
                                    "addToLiveStream": false,
                                    "modifiedAt": null,
                                    "createdAt": 1736924884438,
                                    "isDefault": null,
                                    "dropTimestamp": 0,
                                    "active": null,
                                    "key": null,
                                    "removeTimestamp": 0,
                                    "hlsDisplay": false,
                                    "style": {
                                        "top": "1.6853932584269662",
                                        "left": "84.96835443037975",
                                        "maxWidth": null,
                                        "height": "10.674157303370785",
                                        "width": "13.765822784810128",
                                        "customWidth": null
                                    }
                                },
                                "segment": {
                                    "id": "365a440a-b4bf-4d2c-b48c-fe295d162750",
                                    "start": "0",
                                    "end": "60"
                                }
                            }
                        ]
                    },
                    "jobStatus": "COMPLETE",
                    "jobPercentage": 100,
                    "cta": "https://licencetotest.com/v/9449b5a7edc"
                },
                "accessVisibility": "UNLISTED",
                "id": "9449b5a7edc",
                "name": "If Not Me Then Who_ ! Emma Watson ! ",
                "eventStart": 1736524995133,
                "eventTotal": null,
                "disbursementTotal": null,
                "disbursementStatus": null,
                "ticketCount": null,
                "unSettledEventTotal": 0.000,
                "settledTransactionCount": null,
                "addressLine": null,
                "logo": null,
                "category": "VOD",
                "address_secondary_line": null,
                "address_description": null,
                "website_url": null,
                "cancellation_reason": null,
                "created_date": 1736524995133,
                "session_id": null,
                "archive_id": "f06d7c6d0a7f44ca97937880d3db1687",
                "access_key": "MTczNjUyNDk5NTEzM185NDQ5YjVhN2VkYw==",
                "description": "A Motivational video",
                "photos": [],
                "streamStatus": "ACTIVE"
            },
            {
                "streamArchive": {
                    "archiveId": "018b3a519ecc410e93e9900591f884bf",
                    "archiveName": "DJ_Snake_ft._Justin_Bieber_-_Let_Me_Love_You__Lyric_Video__1736325037693.mp4",
                    "status": "uploaded",
                    "type": "VIDEO",
                    "vodURL": "s3://zeacon-qa-media-files/hls/018b3a519ecc410e93e9900591f884bf/index.m3u8",
                    "createdAt": null,
                    "duration": 206200,
                    "archiveMetadata": {
                        "metadataList": []
                    },
                    "jobStatus": "COMPLETE",
                    "jobPercentage": 100,
                    "cta": "https://qualityinnovators.web.app/contact"
                },
                "accessVisibility": "UNLISTED",
                "id": "20b0ff85475",
                "name": "DJ Snake ft. Justin Bieber - Let Me Love You",
                "eventStart": 1736325139458,
                "eventTotal": null,
                "disbursementTotal": null,
                "disbursementStatus": null,
                "ticketCount": null,
                "unSettledEventTotal": 0.000,
                "settledTransactionCount": null,
                "addressLine": null,
                "logo": "1736325135_images.jpg",
                "category": "VOD",
                "address_secondary_line": null,
                "address_description": null,
                "website_url": null,
                "cancellation_reason": null,
                "created_date": 1736325139458,
                "session_id": null,
                "archive_id": "018b3a519ecc410e93e9900591f884bf",
                "access_key": "MTczNjMyNTEzOTQ1OF8yMGIwZmY4NTQ3NQ==",
                "description": "WOW !!! Tune in now ",
                "photos": [
                    "1736325135_images.jpg"
                ],
                "streamStatus": "ACTIVE"
            },
            {
                "streamArchive": null,
                "accessVisibility": "UNLISTED",
                "id": "fc0cccb0222",
                "name": "live stream only",
                "eventStart": 1736406000000,
                "eventTotal": null,
                "disbursementTotal": null,
                "disbursementStatus": null,
                "ticketCount": null,
                "unSettledEventTotal": 0.000,
                "settledTransactionCount": null,
                "addressLine": null,
                "logo": "1736323454_jokes.jpg",
                "category": "LIVE",
                "address_secondary_line": null,
                "address_description": null,
                "website_url": null,
                "cancellation_reason": null,
                "created_date": 1736323460208,
                "session_id": "1_MX40NzQ3NjA2MX5-MTczNjMyMzQ1ODk3Nn5KWjZveEhiMGQzc2RVbzVvZTA1OUYwamp-fn4",
                "archive_id": null,
                "access_key": "MTczNjMyMzQ2MDIwOF9mYzBjY2NiMDIyMg==",
                "description": "desc comes here",
                "photos": [
                    "1736323454_jokes.jpg"
                ],
                "streamStatus": "ACTIVE"
            },
            {
                "streamArchive": {
                    "archiveId": "7c188c8182f74fdd9b82ee2fbb14cb7f",
                    "archiveName": "mixkit-purple-and-white-ink-1203-hd-ready_1736317850120.mp4",
                    "status": "uploaded",
                    "type": "VIDEO",
                    "vodURL": "s3://zeacon-qa-media-files/hls/7c188c8182f74fdd9b82ee2fbb14cb7f/index.m3u8",
                    "createdAt": null,
                    "duration": 20020,
                    "archiveMetadata": {
                        "metadataList": []
                    },
                    "jobStatus": "COMPLETE",
                    "jobPercentage": 100,
                    "cta": null
                },
                "accessVisibility": "UNLISTED",
                "id": "bc223806249",
                "name": "uploading mix video",
                "eventStart": 1736318203927,
                "eventTotal": null,
                "disbursementTotal": null,
                "disbursementStatus": null,
                "ticketCount": null,
                "unSettledEventTotal": 0.000,
                "settledTransactionCount": null,
                "addressLine": null,
                "logo": null,
                "category": "VOD",
                "address_secondary_line": null,
                "address_description": null,
                "website_url": null,
                "cancellation_reason": null,
                "created_date": 1736318203927,
                "session_id": null,
                "archive_id": "7c188c8182f74fdd9b82ee2fbb14cb7f",
                "access_key": "MTczNjMxODIwMzkyN19iYzIyMzgwNjI0OQ==",
                "description": "",
                "photos": [],
                "streamStatus": "ACTIVE"
            },
            {
                "streamArchive": {
                    "archiveId": "65dd0330c9c84dc2a7464ebdb148a259",
                    "archiveName": "VID-20221104-WA0056_1735831483570.mp4",
                    "status": "uploaded",
                    "type": "VIDEO",
                    "vodURL": "s3://zeacon-qa-media-files/hls/65dd0330c9c84dc2a7464ebdb148a259/index.m3u8",
                    "createdAt": null,
                    "duration": 21666,
                    "archiveMetadata": {
                        "metadataList": []
                    },
                    "jobStatus": "COMPLETE",
                    "jobPercentage": 100,
                    "cta": "https://qunootahmed.github.io/widget-december-11th"
                },
                "accessVisibility": "UNLISTED",
                "id": "59725519a3c",
                "name": "Niagara Falls Canada - Timelapse Video",
                "eventStart": 1735831523743,
                "eventTotal": null,
                "disbursementTotal": null,
                "disbursementStatus": null,
                "ticketCount": null,
                "unSettledEventTotal": 0.000,
                "settledTransactionCount": null,
                "addressLine": null,
                "logo": null,
                "category": "VOD",
                "address_secondary_line": null,
                "address_description": null,
                "website_url": null,
                "cancellation_reason": null,
                "created_date": 1735831523743,
                "session_id": null,
                "archive_id": "65dd0330c9c84dc2a7464ebdb148a259",
                "access_key": "MTczNTgzMTUyMzc0M181OTcyNTUxOWEzYw==",
                "description": "",
                "photos": [],
                "streamStatus": "ACTIVE"
            },
            {
                "streamArchive": {
                    "archiveId": "9185177b33b14989b6f4fb0c5d455195",
                    "archiveName": "20241231_121618_1735629476790.mp4",
                    "status": "uploaded",
                    "type": "VIDEO",
                    "vodURL": "s3://zeacon-qa-media-files/hls/9185177b33b14989b6f4fb0c5d455195/index.m3u8",
                    "createdAt": null,
                    "duration": 7966,
                    "archiveMetadata": {
                        "metadataList": []
                    },
                    "jobStatus": "COMPLETE",
                    "jobPercentage": 100,
                    "cta": null
                },
                "accessVisibility": "UNLISTED",
                "id": "2c7ac45fda9",
                "name": "clockwise - landscape - android",
                "eventStart": 1735629524651,
                "eventTotal": null,
                "disbursementTotal": null,
                "disbursementStatus": null,
                "ticketCount": null,
                "unSettledEventTotal": 0.000,
                "settledTransactionCount": null,
                "addressLine": null,
                "logo": null,
                "category": "VOD",
                "address_secondary_line": null,
                "address_description": null,
                "website_url": null,
                "cancellation_reason": null,
                "created_date": 1735629524651,
                "session_id": null,
                "archive_id": "9185177b33b14989b6f4fb0c5d455195",
                "access_key": "MTczNTYyOTUyNDY1MV8yYzdhYzQ1ZmRhOQ==",
                "description": "",
                "photos": [],
                "streamStatus": "ACTIVE"
            },
            {
                "streamArchive": {
                    "archiveId": "d8a7fa9517864fb7b6347bdd9a743c48",
                    "archiveName": "20241231_115302_1735628917275.mp4",
                    "status": "uploaded",
                    "type": "VIDEO",
                    "vodURL": "s3://zeacon-qa-media-files/hls/d8a7fa9517864fb7b6347bdd9a743c48/index.m3u8",
                    "createdAt": null,
                    "duration": 10866,
                    "archiveMetadata": {
                        "metadataList": []
                    },
                    "jobStatus": "COMPLETE",
                    "jobPercentage": 100,
                    "cta": null
                },
                "accessVisibility": "UNLISTED",
                "id": "b9a1cdb76ea",
                "name": "android portrait",
                "eventStart": 1735628985523,
                "eventTotal": null,
                "disbursementTotal": null,
                "disbursementStatus": null,
                "ticketCount": null,
                "unSettledEventTotal": 0.000,
                "settledTransactionCount": null,
                "addressLine": null,
                "logo": null,
                "category": "VOD",
                "address_secondary_line": null,
                "address_description": null,
                "website_url": null,
                "cancellation_reason": null,
                "created_date": 1735628985523,
                "session_id": null,
                "archive_id": "d8a7fa9517864fb7b6347bdd9a743c48",
                "access_key": "MTczNTYyODk4NTUyM19iOWExY2RiNzZlYQ==",
                "description": "",
                "photos": [],
                "streamStatus": "ACTIVE"
            }
        ],
        "pageable": {
            "sort": {
                "empty": false,
                "sorted": true,
                "unsorted": false
            },
            "offset": 0,
            "pageNumber": 0,
            "pageSize": 10,
            "paged": true,
            "unpaged": false
        },
        "last": false,
        "totalElements": 31,
        "totalPages": 4,
        "size": 10,
        "number": 0,
        "sort": {
            "empty": false,
            "sorted": true,
            "unsorted": false
        },
        "numberOfElements": 10,
        "first": true,
        "empty": false
    }
}